﻿[
    {
        "model":"locale",
        "data":[
            {"code":"en"},
            {"code":"fr-CA"}
        ]
    },
    {
        "model":"deck",
        "data":[
            {"name":"classic", "localeId":2}
        ]
    },
    {
        "model":"q_card",
        "data":[
            {"deckId":1, "a_count":1, "content":" ____: c'est tellement emo!"},
            {"deckId":1, "a_count":1, "content":" Dans la ferme à Mathurin / Hi aïe hi aïe ho! / Y'a ____. / Hi aïe hi aïe ho!"},
            {"deckId":1, "a_count":1, "content":" Papa, pourquoi maman elle pleure?"},
            {"deckId":1, "a_count":1, "content":" Pendant son enfance, Dali a créé des centaines de tableaux représentant ____."},
            {"deckId":1, "a_count":1, "content":" Comment ai-je perdu ma virginité?"},
            {"deckId":1, "a_count":1, "content":" Dans 1000 ans l'argent papier ne sera qu'un vague souvenir, alors comment paireons-nous les choses?"},
            {"deckId":1, "a_count":1, "content":" Le Biodôme présentera demain une nouvelle aire interactive portant sur ____."},
            {"deckId":1, "a_count":1, "content":" Qu'est-ce que le ministère des Transports interdit dorénavant sur tous les avions?"},
            {"deckId":1, "a_count":1, "content":" C'est bien dommage de voir les enfants d'aujourd'hui avoir à dealer avec ____."},
            {"deckId":1, "a_count":1, "content":" La Ligue Nationale de Hockey a banni ____ à cause des avantages injuste que ça procure."},
            {"deckId":1, "a_count":1, "content":" Quel est le plaisir coupable de Batman?"},
            {"deckId":1, "a_count":1, "content":" Le prochain livre de J.K. Jrowling: Harry Potter contre ____."},
            {"deckId":1, "a_count":1, "content":" Je m'excuse madame, je n'ai pas pu terminer mon devoir à cause de ____."},
            {"deckId":1, "a_count":1, "content":" Qu'est-ce que j'ai rapporté du Mexique?"},
            {"deckId":1, "a_count":1, "content":" ____. Impossible de s'en passer!"},
            {"deckId":1, "a_count":1, "content":" Qu'est-ce qui me permet de ne plus toucher à la drogue?"},
            {"deckId":1, "a_count":1, "content":" Alors que les États-Unis et l'URSS conquéraient la Lune, le Mexique dépensait des millions de pesos dans la recherche sur ____."},
            {"deckId":1, "a_count":1, "content":" Dans le nouveau film de Disney, Hannah Montana fait face à ____ pour la toute première fois."},
            {"deckId":1, "a_count":1, "content":" Quel est mon super-pouvoir secret?"},
            {"deckId":1, "a_count":1, "content":" C'est quoi cette nouvelle diète miracle?"},
            {"deckId":1, "a_count":1, "content":" Qu'est-ce que Vin Diesel mange pour souper?"},
            {"deckId":1, "a_count":1, "content":" Devant le Pharaon impassible, Moïse provoqua la onzième plaie: ____."},
            {"deckId":1, "a_count":1, "content":" Voici la recette de ma vie amoureuse: ____."},
            {"deckId":1, "a_count":1, "content":" Quand j'irai en prison, je cacherai ____ dans mes fesses pour faire de la contrebande."},
            {"deckId":1, "a_count":1, "content":" Après le tremblement de terre, Céline Dion a donné ____ aux habitants d'Haïti."},
            {"deckId":1, "a_count":1, "content":" Qu'est-ce que le Père Noël donne dorénavant aux enfants tannants, au lieu du charbon?"},
            {"deckId":1, "a_count":1, "content":" La vie des Amérindiens fut changée à tout jamais lorsque l'Homme Blanc lui apporta ____."},
            {"deckId":1, "a_count":1, "content":" Qu'est-ce que la Fondation du Dr Julien utilise pour aider les enfants pauvres à réussir?"},
            {"deckId":1, "a_count":1, "content":" ____. Parce que je le mérite bien."},
            {"deckId":1, "a_count":1, "content":" La dernière chose à laquelle pensa Michael jackson avant de mourir fut ____."},
            {"deckId":1, "a_count":1, "content":" Le Blancs aiment ____."},
            {"deckId":1, "a_count":1, "content":" Pourquoi est-ce que j'ai mal partout?"},
            {"deckId":1, "a_count":1, "content":" Un romantique dîner aux chandelles ne serait pas une réussite sans ____."},
            {"deckId":1, "a_count":1, "content":" Qu'est-ce que je ramène dans le passé pour convaincre tout le monde que je suis un sorcier puissant?"},
            {"deckId":1, "a_count":1, "content":" Je suis le gars dur ShamWow! et voici ____."},
            {"deckId":1, "a_count":1, "content":" À mon école, l'excursion a été totalement scrappée par ____."},
            {"deckId":1, "a_count":1, "content":" Le meilleur ami des filles, c'est ____."},
            {"deckId":1, "a_count":1, "content":" Chère Louise Deschâtelets, j'ai de la misère avec ____. Pouvez-vous m'aider?"},
            {"deckId":1, "a_count":1, "content":" Quand je serai Premier Ministre, je créerai le ministère de ____."},
            {"deckId":1, "a_count":1, "content":" Qu'est-ce que mes parents me cachent?"},
            {"deckId":1, "a_count":1, "content":" Qu'est-ce qui fait toujours lever le party?"},
            {"deckId":1, "a_count":1, "content":" Qu'est-ce qui s'améliore avec le temps?"},
            {"deckId":1, "a_count":1, "content":" ____: bon jusqu'à la dernière goutte."},
            {"deckId":1, "a_count":1, "content":" C'est pas fa-ci-le / Quand ____ te laisse tomber!"},
            {"deckId":1, "a_count":1, "content":" ____. C'est un piège!"},
            {"deckId":1, "a_count":1, "content":" La nouvelle téléréalité de TVA c'est huit vedettes vieillissantes qui vivent avec ____."},
            {"deckId":1, "a_count":1, "content":" Qu'est-ce que grand-maman trouve d'abord perturbant, puis étrangement plaisant?"},
            {"deckId":1, "a_count":1, "content":" Lors de relations sexuelles, j'aime penser à ____."},
            {"deckId":1, "a_count":1, "content":" Qu'est-ce qui a détruit ma relation amoureuse?"},
            {"deckId":1, "a_count":1, "content":" C'est quoi ce son?"},
            {"deckId":1, "a_count":1, "content":" ____. C'est comme ça que je veux mourir."},
            {"deckId":1, "a_count":1, "content":" Pourquoi suis-je tout collant?"},
            {"deckId":1, "a_count":1, "content":" Quel sera le prochain jouet dans les Joyeux Festins?"},
            {"deckId":1, "a_count":1, "content":" Il y a des tonnes de ____ au paradis."},
            {"deckId":1, "a_count":1, "content":" Je ne sais pas avec quelles armes se fera la Troisième Guerre Mondiale, mais la Quatrième se fera avec ____."},
            {"deckId":1, "a_count":1, "content":" Qu'est-ce qui vous permet de coucher avec qui vous voulez?"},
            {"deckId":1, "a_count":1, "content":" ____: les enfants aiment, les mamans adorent."},
            {"deckId":1, "a_count":1, "content":" Qu'est-ce qui m'empêche de dormir?"},
            {"deckId":1, "a_count":1, "content":" Mais qu'est-ce que ça sent?"},
            {"deckId":1, "a_count":1, "content":" Qu'est-ce qui aide Harper à relaxer?"},
            {"deckId":1, "a_count":1, "content":" À la Place des Arts ce mois-ci, la comédie musicale ____."},
            {"deckId":1, "a_count":1, "content":" Mais avant de vous tuer, M. Bond, je dois vous montrer ____."},
            {"deckId":1, "a_count":1, "content":" Une étude démontre que des rats de laboratoire se déplacent deux fois plus vite après avoir été exposés à ____."},
            {"deckId":1, "a_count":1, "content":" À l'antenne de RDS, vous écoutez la Finale Internationale de ____."},
            {"deckId":1, "a_count":1, "content":" Quand je serai riche, je ferai ériger une statue de 15 mètres pour commémorer ____."},
            {"deckId":1, "a_count":1, "content":" La guerre! Qu'est-ce que ça a de positif?"},
            {"deckId":1, "a_count":1, "content":" Pourquoi ai-je des flatulences incontrôlables?"},
            {"deckId":1, "a_count":1, "content":" Les vieux, ça sent quoi?"},
            {"deckId":1, "a_count":1, "content":" Pendant le Carême, de quoi vais-je me priver?"},
            {"deckId":1, "a_count":1, "content":" La médecine alternative reconnait maintenant les bienfaits de ____."},
            {"deckId":1, "a_count":1, "content":" Qu'est-ce que les États-Unis ont parachuté aux enfants afghans?"},
            {"deckId":1, "a_count":1, "content":" Qu'est-ce que Pauline Marois adore?"},
            {"deckId":1, "a_count":1, "content":" Qu'est-ce que vous n'aimeriez pas trouver dans votre repas vietnamien?"},
            {"deckId":1, "a_count":1, "content":" Je bois pour oublier ____."},
            {"deckId":1, "a_count":1, "content":" ____. High five, le gros."},
            {"deckId":1, "a_count":2, "content":" La rumeur court que Vladimir Poutine adore manger ____ fourré avec ____."},
            {"deckId":1, "a_count":2, "content":" Quel est le prochain duo super-héros/acolyte?"},
            {"deckId":1, "a_count":2, "content":" C'est vrai, j'ai tué ____. Avec ____."},
            {"deckId":1, "a_count":2, "content":" Pour mon prochain numéro, je vais faire sortir ____ de ____."},
            {"deckId":1, "a_count":2, "content":" Et l'Oscar pour ____ est remis à ____."},
            {"deckId":1, "a_count":2, "content":" Étape 1: ____. Étape 2: ____. Étape 3: Des profits."},
            {"deckId":1, "a_count":2, "content":" Pendant mon trip d'acide, ____ se transformait en ____."},
            {"deckId":1, "a_count":2, "content":" ____ ça mène toujours à ____."},
            {"deckId":1, "a_count":2, "content":" Dans un monde ravagé par ____, notre seul espoir est ____."},
            {"deckId":1, "a_count":2, "content":" Dans le nouveau film de Xavier Dolan, Roy Dupuis dévouvre que ____ était en fait ____ depuis le début."},
            {"deckId":1, "a_count":2, "content":" Je n'ai jamais compris ____ jusqu'à ce que je connaisse ____."},
            {"deckId":1, "a_count":2, "content":" Le Canal Vie présente ____, la tragique histoire de ____."},
            {"deckId":1, "a_count":2, "content":" Au clair de la Lune / Mon ami Pierrot / Prête-moi ____ / Pour ____."},
            {"deckId":1, "a_count":3, "content":" ____ + ____ = ____."},
            {"deckId":1, "a_count":3, "content":" Faites un haïku."},
            {"deckId":1, "a_count":1, "content":"* J'ai peur de la police à cause de ____."},
            {"deckId":1, "a_count":1, "content":"* Attention! C'est une tornade de ____!"},
            {"deckId":1, "a_count":2, "content":"* Au Subway, je mets toujours ____ et ____ dans mon sandwich."},
            {"deckId":1, "a_count":1, "content":"* Depuis que j'ai touché à ____, ça me gratte intensément les parties."},
            {"deckId":1, "a_count":1, "content":"* Mon grand-père est aveugle, mais il sait toujours quand il y a ____."},
            {"deckId":1, "a_count":1, "content":"* 2000 ans d'histoire pour en arriver à ____."},
            {"deckId":1, "a_count":1, "content":"* On a découvert que tous les trisomiques avaient un talent caché pour ____."},
            {"deckId":1, "a_count":1, "content":"* Mike parle toujours de ____. Mike est un psychopathe."},
            {"deckId":1, "a_count":1, "content":"* Comment s'appelera le prochain film de Xavier Dolan?"},
            {"deckId":1, "a_count":1, "content":"* Quand j'étais petit, mes premiers mots furent: ____."},
            {"deckId":1, "a_count":2, "content":"* ____, ____, pas le temps de niaiser!"},
            {"deckId":1, "a_count":1, "content":"* ____: Jamais, au grand jamais... excepté une fois au chalet."},
            {"deckId":1, "a_count":1, "content":"* Quel est l'ingrédient secret de la potion magique de Panoramix?"},
            {"deckId":1, "a_count":1, "content":"* Je pars à l'aventure en Somalie, dans l'espoir de trouver ____."},
            {"deckId":1, "a_count":1, "content":"* J'ai conquéri ma femme en lui écrivant un poème sur ____."},
            {"deckId":1, "a_count":1, "content":"* Quand je me touche, je pense à ____."},
            {"deckId":1, "a_count":1, "content":"* Quand j'ai ouvert mon ordinateur, je me suis retrouvé sur un site pour ____."},
            {"deckId":1, "a_count":1, "content":"* Comment faire pour se débarasser de la visite fatiguante?"},
            {"deckId":1, "a_count":1, "content":"* Frodon, tu dois aller jeter l'anneau dans ____."},
            {"deckId":1, "a_count":1, "content":"* Je m'inquiète pour Robert. Hier, je l'ai vu s'adresser à ____."},
            {"deckId":1, "a_count":1, "content":"* Si tu entends soudainement des hurlement aux glissades d'eau, c'est sûrement à cause de ____."},
            {"deckId":1, "a_count":1, "content":"* Comme vous avez une grande bouche! / C'est pour mieux ____, mon enfant."},
            {"deckId":1, "a_count":1, "content":"* Depuis que j'ai installé ____ dans mon salon, personne ne veut venir chez moi."},
            {"deckId":1, "a_count":1, "content":"* Docteur, j'ai mal au cul. / Dans ce cas, je vous recommande fortement de ____."},
            {"deckId":1, "a_count":1, "content":"* Quoi de mieux qu'observer un coucher de soleil avec ____."},
            {"deckId":1, "a_count":1, "content":"* Qu'est-ce qu'il te manque pour que ta vie soit complète?"},
            {"deckId":1, "a_count":1, "content":"* ____. Amen."},
            {"deckId":1, "a_count":1, "content":"* Comment créer un malaise dans un souper de famille?"},
            {"deckId":1, "a_count":1, "content":"* Dans le nouveau Twilight, Bella tombe en amour avec ____."},
            {"deckId":1, "a_count":1, "content":"* C'est le jour de la marmotte: elle est sortie et a vu ____."},
            {"deckId":1, "a_count":1, "content":"* Quand je te regarde, je ne pense qu'à ____."},
            {"deckId":1, "a_count":1, "content":"* Ma toune de Death Metal préférée s'intitule: ____."},
            {"deckId":1, "a_count":1, "content":"* Manger ____, c'est manger santé!"},
            {"deckId":1, "a_count":1, "content":"* Quand la nuit tombe, j'ai envie de ____."},
            {"deckId":1, "a_count":1, "content":"* Qui va à la chasse perd ____."},
            {"deckId":1, "a_count":1, "content":"* L'univers, dans le fond, c'est juste ____."},
            {"deckId":1, "a_count":1, "content":"* ____, c'est toujours mieux à deux!"},
            {"deckId":1, "a_count":1, "content":"* Un beau grand gars, bien musclé, avec des tattoos, et ____."},
            {"deckId":1, "a_count":1, "content":"* Dans l'épisode d'aujourd'hui, Caillou découvre ____."},
            {"deckId":1, "a_count":1, "content":"* Tous les pauvres devraient apprendre à ____."}
        ]
    },
    {
        "model":"a_card",
        "data":[
            {"deckId":1,"content":" Une chaudière de têtes de poisson."},
            {"deckId":1,"content":" Le silence."},
            {"deckId":1,"content":" Un party de saucisses."},
            {"deckId":1,"content":" Un policier honnête qui n'a plus rien à perdre."},
            {"deckId":1,"content":" La famine."},
            {"deckId":1,"content":" La bactérie mangeuse de chair."},
            {"deckId":1,"content":" Des castors volants qui fourrent."},
            {"deckId":1,"content":" Se crisser du Tiers-Monde."},
            {"deckId":1,"content":" Envoyer des sextos."},
            {"deckId":1,"content":" Des loups-garous."},
            {"deckId":1,"content":" Des stars pornos."},
            {"deckId":1,"content":" Violer les femmes et voler les chevaux."},
            {"deckId":1,"content":" 72 vierges."},
            {"deckId":1,"content":" Des rires en canne."},
            {"deckId":1,"content":" Un paradoxe temporel."},
            {"deckId":1,"content":" La cuisine mexicaine authentique."},
            {"deckId":1,"content":" Du bling."},
            {"deckId":1,"content":" Des solutions synergétiques de gestion."},
            {"deckId":1,"content":" Une dette accablante."},
            {"deckId":1,"content":" Une fille à papa."},
            {"deckId":1,"content":" Des petites culottes usagées."},
            {"deckId":1,"content":" Agripper son sabre, saisir la corde et s'écrier: À l'abordage!"},
            {"deckId":1,"content":" Jean Charest."},
            {"deckId":1,"content":" Se promener les fesses à l'air."},
            {"deckId":1,"content":" Des injections d'hormones."},
            {"deckId":1,"content":" Couler un bronze."},
            {"deckId":1,"content":" Se mettre tout nu et regarder Télétoon."},
            {"deckId":1,"content":" Faire semblant d'être intéressé."},
            {"deckId":1,"content":" Faire le zouave."},
            {"deckId":1,"content":" Se piquer avec des seringues sales."},
            {"deckId":1,"content":" Des crottes de nez."},
            {"deckId":1,"content":" L'inévitable mort thermique de l'univers."},
            {"deckId":1,"content":" La merveilleuse épopée de l'accouchement."},
            {"deckId":1,"content":" L'Apocalypse."},
            {"deckId":1,"content":" Sortir sa graine avec enthousiasme."},
            {"deckId":1,"content":" La misère des riches."},
            {"deckId":1,"content":" Le devoir conjugal."},
            {"deckId":1,"content":" Pique-Burger."},
            {"deckId":1,"content":" Du déodorant Axe."},
            {"deckId":1,"content":" Le Sang du Christ."},
            {"deckId":1,"content":" Des cicatrices purulentes d'épilation au laser."},
            {"deckId":1,"content":" Batman!"},
            {"deckId":1,"content":" L'agriculture."},
            {"deckId":1,"content":" Un trisomique très costaud."},
            {"deckId":1,"content":" La sélection naturelle."},
            {"deckId":1,"content":" Des avortements au cintre."},
            {"deckId":1,"content":" Manger les meilleurs bonbons avant l'Halloween."},
            {"deckId":1,"content":" La poitrine légendaire de Mitsou."},
            {"deckId":1,"content":" World of Warcraft."},
            {"deckId":1,"content":" Cruiser."},
            {"deckId":1,"content":" L'obésité."},
            {"deckId":1,"content":" Un montage de volleyball homoérotique."},
            {"deckId":1,"content":" Le tétanos."},
            {"deckId":1,"content":" Une parade nuptiale."},
            {"deckId":1,"content":" Une torsion testiculaire."},
            {"deckId":1,"content":" Des crevettes à volonté pour 4,99$."},
            {"deckId":1,"content":" Une barre Mars frite et un verre de beurre fondu."},
            {"deckId":1,"content":" Kanye West."},
            {"deckId":1,"content":" Du fromage fondu."},
            {"deckId":1,"content":" Des embuscades de vélociraptors."},
            {"deckId":1,"content":" Enlever son chandail."},
            {"deckId":1,"content":" Le smegma."},
            {"deckId":1,"content":" L'alcoolisme."},
            {"deckId":1,"content":" Un cinquantenaire en patins à roulettes."},
            {"deckId":1,"content":" Un Calinours qui explique le sexe aux enfants."},
            {"deckId":1,"content":" Boire comme un trou."},
            {"deckId":1,"content":" Des sucettes géantes."},
            {"deckId":1,"content":" Le dégoût de soi."},
            {"deckId":1,"content":" Des enfants tenus en laisse."},
            {"deckId":1,"content":" Des préliminaires botchées."},
            {"deckId":1,"content":" La Bible."},
            {"deckId":1,"content":" La porno sado-maso allemande."},
            {"deckId":1,"content":" Être en feu."},
            {"deckId":1,"content":" Une ado enceinte."},
            {"deckId":1,"content":" Gandhi."},
            {"deckId":1,"content":" Laisser un message embarrassant sur le répondeur."},
            {"deckId":1,"content":" Un uppercut."},
            {"deckId":1,"content":" Une pyramide de têtes coupées."},
            {"deckId":1,"content":" Une érection qui dure plus que quatre heures."},
            {"deckId":1,"content":" Mes parties génitales."},
            {"deckId":1,"content":" Cruiser les filles à la clinique d'avortement."},
            {"deckId":1,"content":" La science."},
            {"deckId":1,"content":" Le sexe oral non réciproque."},
            {"deckId":1,"content":" Le Stade Olympique."},
            {"deckId":1,"content":" Renifler avec vigueur."},
            {"deckId":1,"content":" Une décharge électrique aux mamelons."},
            {"deckId":1,"content":" Un petit déjeuner équilibré."},
            {"deckId":1,"content":" Des camps de bûcheron."},
            {"deckId":1,"content":" Se faire pogner les culottes baissées, pour vrai."},
            {"deckId":1,"content":" La fondation Rêve d'Enfant."},
            {"deckId":1,"content":" Une tribu de femmes guerrières."},
            {"deckId":1,"content":" Des Post-it passif-agressifs."},
            {"deckId":1,"content":" L'équipe chinoise de gymnastique."},
            {"deckId":1,"content":" Appeler le Clan Panneton."},
            {"deckId":1,"content":" Faire un p'tit pipi."},
            {"deckId":1,"content":" Nathalie Simard qui pleure en mangeant un p'tit pouding Laura Secord."},
            {"deckId":1,"content":" Des émissions nocturnes."},
            {"deckId":1,"content":" Les Juifs."},
            {"deckId":1,"content":" Branler un peu les fesses, en signe de détresse."},
            {"deckId":1,"content":" Des cuisses musclées."},
            {"deckId":1,"content":" Faire des clins d'oeil à des vieux."},
            {"deckId":1,"content":" Monsieur Net, juste derrière toi."},
            {"deckId":1,"content":" Une douce caresse de l'entre-jambe."},
            {"deckId":1,"content":" Une tension sexuelle."},
            {"deckId":1,"content":" Un AK-47."},
            {"deckId":1,"content":" Skeletor."},
            {"deckId":1,"content":" Du crastillon."},
            {"deckId":1,"content":" Être riche."},
            {"deckId":1,"content":" La douce revanche."},
            {"deckId":1,"content":" Les Conservateurs."},
            {"deckId":1,"content":" Une antilope flatulente."},
            {"deckId":1,"content":" Karine Vanasse."},
            {"deckId":1,"content":" Se frotter subtilement sur quelqu'un."},
            {"deckId":1,"content":" Des pilotes kamikazes."},
            {"deckId":1,"content":" Sean Connery."},
            {"deckId":1,"content":" Vivre son homosexualité."},
            {"deckId":1,"content":" Les gentils Cubains."},
            {"deckId":1,"content":" Un faucon de chasse."},
            {"deckId":1,"content":" Les petits chanteurs du Mont-Royal."},
            {"deckId":1,"content":" Youppi!"},
            {"deckId":1,"content":" Se mettre tellement en colère que ça fait bander."},
            {"deckId":1,"content":" Des échantillons gratuits."},
            {"deckId":1,"content":" Beaucoup de bruit pour rien."},
            {"deckId":1,"content":" Faire ce qu'y a à faire."},
            {"deckId":1,"content":" La bataille des plaines d'Abraham."},
            {"deckId":1,"content":" La lactation."},
            {"deckId":1,"content":" La paix dans le monde."},
            {"deckId":1,"content":" RoboCop."},
            {"deckId":1,"content":" Avoir les couilles bénites."},
            {"deckId":1,"content":" Justin Bieber."},
            {"deckId":1,"content":" Les Oompa Loompas."},
            {"deckId":1,"content":" Yodler quand c'est pas le temps."},
            {"deckId":1,"content":" La puberté."},
            {"deckId":1,"content":" Des fantômes."},
            {"deckId":1,"content":" Des seins refaits tout croche."},
            {"deckId":1,"content":" Un set carré endiablé."},
            {"deckId":1,"content":" Passer le doigt."},
            {"deckId":1,"content":" Le corps nu et huilé du Doc Mailloux."},
            {"deckId":1,"content":" Des yogourts en tubes."},
            {"deckId":1,"content":" La brutalité policière."},
            {"deckId":1,"content":" Le caporal Lortie."},
            {"deckId":1,"content":" Des préados."},
            {"deckId":1,"content":" Scalper."},
            {"deckId":1,"content":" Penser aux Hutus et aux Tutsis et trouver a drôle."},
            {"deckId":1,"content":" L'électricité."},
            {"deckId":1,"content":" Darth Vader."},
            {"deckId":1,"content":" Une p'tite vite tristement exécutée."},
            {"deckId":1,"content":" Exactement ce qui devait arriver."},
            {"deckId":1,"content":" Penser roter et vomir par terre."},
            {"deckId":1,"content":" Des amphétamines."},
            {"deckId":1,"content":" Des cellules souches."},
            {"deckId":1,"content":" Un élégant décolleté."},
            {"deckId":1,"content":" Des pandas qui copulent allègrement."},
            {"deckId":1,"content":" Une lobotomie au pic à glace."},
            {"deckId":1,"content":" Tom Cruise."},
            {"deckId":1,"content":" L'herpès buccal."},
            {"deckId":1,"content":" Les bélugas."},
            {"deckId":1,"content":" Les sans-abris."},
            {"deckId":1,"content":" Tripoter une plotte."},
            {"deckId":1,"content":" L'inceste."},
            {"deckId":1,"content":" Pac-Man qui cale du sperme sans retenue."},
            {"deckId":1,"content":" Un mime qui fait un AVC."},
            {"deckId":1,"content":" Hulk Hogan."},
            {"deckId":1,"content":" Dieu."},
            {"deckId":1,"content":" Se décrasser le dessous des bourrelets."},
            {"deckId":1,"content":" Se faire pisser dessus et adorer ça."},
            {"deckId":1,"content":" Les émotions."},
            {"deckId":1,"content":" Lécher de la bouffe pour que personne la prenne."},
            {"deckId":1,"content":" Une grosse quille de Wildcat tablette."},
            {"deckId":1,"content":" Le placenta."},
            {"deckId":1,"content":" La combustion spontanée."},
            {"deckId":1,"content":" Une scène de cul dans Lance et compte."},
            {"deckId":1,"content":" La peinture à numéros."},
            {"deckId":1,"content":" L'odeur de p'tit vieux."},
            {"deckId":1,"content":" Mourir de la dysenterie."},
            {"deckId":1,"content":" Mes démons intérieurs."},
            {"deckId":1,"content":" Un fusil à eau rempli de pisse de chat."},
            {"deckId":1,"content":" Jacques Cartier."},
            {"deckId":1,"content":" Se faire des câlins."},
            {"deckId":1,"content":" Des gratteux."},
            {"deckId":1,"content":" Des amputations à froid."},
            {"deckId":1,"content":" Des dommages collatéraux."},
            {"deckId":1,"content":" Jean Chrétien."},
            {"deckId":1,"content":" Une fête d'anniversaire ratée."},
            {"deckId":1,"content":" Une jeune noire plutôt coquine."},
            {"deckId":1,"content":" Un cul-de-jatte qui fait un crise d'épilepsie."},
            {"deckId":1,"content":" Un petit cheval."},
            {"deckId":1,"content":" René Angélil."},
            {"deckId":1,"content":" Galoper vers le soleil couchant."},
            {"deckId":1,"content":" Un rebondissement de M. Night Shyamalan."},
            {"deckId":1,"content":" Les Amérindiens."},
            {"deckId":1,"content":" La destruction mutuelle assurée."},
            {"deckId":1,"content":" Des pédophiles."},
            {"deckId":1,"content":" Du fromage cottage."},
            {"deckId":1,"content":" Piller des tombes."},
            {"deckId":1,"content":" Manger un bébé phoque."},
            {"deckId":1,"content":" Des catapultes."},
            {"deckId":1,"content":" Les pauvres."},
            {"deckId":1,"content":" Détruire les pièces à conviction."},
            {"deckId":1,"content":" La danse des canards."},
            {"deckId":1,"content":" La Force."},
            {"deckId":1,"content":" Lui torcher le cul."},
            {"deckId":1,"content":" Le mariage, les enfants, le chalet, la retraite, la mort."},
            {"deckId":1,"content":" Un criss de stool."},
            {"deckId":1,"content":" Le sida."},
            {"deckId":1,"content":" Des photos de totons."},
            {"deckId":1,"content":" Le Surhomme."},
            {"deckId":1,"content":" Jean Là-Là Tremblay."},
            {"deckId":1,"content":" Les Résidences Soleil."},
            {"deckId":1,"content":" Fumer un gros bat."},
            {"deckId":1,"content":" La Scientologie."},
            {"deckId":1,"content":" Une danse à 1."},
            {"deckId":1,"content":" Guérir l'homosexualité par la prière."},
            {"deckId":1,"content":" Gambader."},
            {"deckId":1,"content":" Deux nains qui chient dans un sceau."},
            {"deckId":1,"content":" Le Ku Klux Klan."},
            {"deckId":1,"content":" Genghis Khan."},
            {"deckId":1,"content":" Du crystal meth."},
            {"deckId":1,"content":" L'esclavage."},
            {"deckId":1,"content":" Un gars qui se liche les lèvres en te regardant."},
            {"deckId":1,"content":" Buzz Lightyear."},
            {"deckId":1,"content":" Le talent d'actrice de Caroline Néron."},
            {"deckId":1,"content":" Se pavaner."},
            {"deckId":1,"content":" Le vigilantisme."},
            {"deckId":1,"content":" Grosse corvette, p'tite quéquette."},
            {"deckId":1,"content":" Un gif animé de bukkake."},
            {"deckId":1,"content":" Une vie pleine de tristesse."},
            {"deckId":1,"content":" Le racisme."},
            {"deckId":1,"content":" Le SPM."},
            {"deckId":1,"content":" Le soleil qui brille et les arcs-en-ciel."},
            {"deckId":1,"content":" Un singe qui fume le cigare."},
            {"deckId":1,"content":" La réhabilitation."},
            {"deckId":1,"content":" Le testicule manquant de Lance Armstrong."},
            {"deckId":1,"content":" Caller l'orignal."},
            {"deckId":1,"content":" Les terroristes."},
            {"deckId":1,"content":" Britney Spears à 55 ans."},
            {"deckId":1,"content":" Une maudite tête de cochon."},
            {"deckId":1,"content":" Se mettre à chanter et à danser."},
            {"deckId":1,"content":" La lèpre."},
            {"deckId":1,"content":" Des saunas gais."},
            {"deckId":1,"content":" Des bouttes ben durs."},
            {"deckId":1,"content":" Un coeur d'enfant."},
            {"deckId":1,"content":" Des bébés chiens!"},
            {"deckId":1,"content":" Se réveiller tout nu dans le stationnement d'un Valentine."},
            {"deckId":1,"content":" Se faire brouter la touffe."},
            {"deckId":1,"content":" Le vagin de Janine Sutto."},
            {"deckId":1,"content":" Cet endroit chaud et invitant entre l'anus et la poche."},
            {"deckId":1,"content":" L'écoute thérapeutique."},
            {"deckId":1,"content":" Un nettoyage ethnique."},
            {"deckId":1,"content":" Bob l'éponge."},
            {"deckId":1,"content":" L'offre et la demande."},
            {"deckId":1,"content":" Attendre jusqu'au mariage."},
            {"deckId":1,"content":" La stupidité la plus abjecte."},
            {"deckId":1,"content":" Des objets qui brillent."},
            {"deckId":1,"content":" Le Diable en personne."},
            {"deckId":1,"content":" L'auto-cannibalisme."},
            {"deckId":1,"content":" L'impuissance."},
            {"deckId":1,"content":" Ma collection de vibrateurs haute technologie."},
            {"deckId":1,"content":" Le Pape."},
            {"deckId":1,"content":" Les Blancs."},
            {"deckId":1,"content":" Des mangas pornos avec tentacules."},
            {"deckId":1,"content":" Kidnapper Mario Dumont et le forcer à danser dans un costume de gorille."},
            {"deckId":1,"content":" Le solo de My Heart Will Go On au piccolo."},
            {"deckId":1,"content":" Hara-kiri."},
            {"deckId":1,"content":" Des toilettes mixtes."},
            {"deckId":1,"content":" Tricher aux Jeux olympiques spéciaux."},
            {"deckId":1,"content":" Lancer une vierge dans un volcan."},
            {"deckId":1,"content":" Guillaume Lemay-Thivierge."},
            {"deckId":1,"content":" Rémy Girard."},
            {"deckId":1,"content":" Simple Plan."},
            {"deckId":1,"content":" Une gigue endiablée."},
            {"deckId":1,"content":" Une crotte qui sort et qui rentre."},
            {"deckId":1,"content":" À l'infini."},
            {"deckId":1,"content":" Un abonnement à Sentier Chasse-Pêche."},
            {"deckId":1,"content":" Des enfants qui ont le cancer du cul."},
            {"deckId":1,"content":" Une surprise salée."},
            {"deckId":1,"content":" L'Alberta."},
            {"deckId":1,"content":" La violation du droit fondamental à la vie."},
            {"deckId":1,"content":" llolol Zerg Rush kekekekeke."},
            {"deckId":1,"content":" Un viol collectif."},
            {"deckId":1,"content":" Être extraordinaire."},
            {"deckId":1,"content":" La nécrophilie."},
            {"deckId":1,"content":" Des centaures."},
            {"deckId":1,"content":" Hubert Reeves."},
            {"deckId":1,"content":" Les Noirs."},
            {"deckId":1,"content":" L'Association des scouts du Canada."},
            {"deckId":1,"content":" Des Jos Louis."},
            {"deckId":1,"content":" Des enfants de chienne."},
            {"deckId":1,"content":" Les handicapés lourds."},
            {"deckId":1,"content":" Des orphelins qui te réchauffent le coeur."},
            {"deckId":1,"content":" MéchaHitler."},
            {"deckId":1,"content":" Le caca qui brûle."},
            {"deckId":1,"content":" Un autre ostie de film de vampire."},
            {"deckId":1,"content":" Marcher sur un Lego."},
            {"deckId":1,"content":" Un Noël d'amour et de paix."},
            {"deckId":1,"content":" L'oestrogène."},
            {"deckId":1,"content":" La bébelle qui électrocute les abdos."},
            {"deckId":1,"content":" Passer une pierre aux reins."},
            {"deckId":1,"content":" Un anus peroxydé."},
            {"deckId":1,"content":" Michael Jackson."},
            {"deckId":1,"content":" Des implants cybernétiques."},
            {"deckId":1,"content":" Les gars qui ne rappellent jamais."},
            {"deckId":1,"content":" Des couvertures infectées de variole."},
            {"deckId":1,"content":" La masturbation."},
            {"deckId":1,"content":" Des sous-entendus discriminatoires."},
            {"deckId":1,"content":" Un pet vaginal."},
            {"deckId":1,"content":" Cacher une érection."},
            {"deckId":1,"content":" Des bobettes mangeables."},
            {"deckId":1,"content":" Du Viagra."},
            {"deckId":1,"content":" De la soupe beaucoup trop chaude."},
            {"deckId":1,"content":" Mahomet (Gloire à Lui)."},
            {"deckId":1,"content":" Du sexe surprise!"},
            {"deckId":1,"content":" Deux steamés, une patate frite."},
            {"deckId":1,"content":" Boire tout seul."},
            {"deckId":1,"content":" Lancer comme une fille."},
            {"deckId":1,"content":" De multiples coups de couteau."},
            {"deckId":1,"content":" Des couches pleines de marde."},
            {"deckId":1,"content":" La violence faite aux enfants."},
            {"deckId":1,"content":" Des boules anales."},
            {"deckId":1,"content":" Des pertes civiles."},
            {"deckId":1,"content":" Se retirer."},
            {"deckId":1,"content":" Robert Downey Jr."},
            {"deckId":1,"content":" De la viande chevaline."},
            {"deckId":1,"content":" Un chapeau vraiment cool."},
            {"deckId":1,"content":" Staline."},
            {"deckId":1,"content":" Un poil pubien errant."},
            {"deckId":1,"content":" Un pub irlandais."},
            {"deckId":1,"content":" La minorité visible."},
            {"deckId":1,"content":" Le faire dans les fesses."},
            {"deckId":1,"content":" Nourrir Ginette Reno."},
            {"deckId":1,"content":" Apprendre à un robot l'art d'aimer."},
            {"deckId":1,"content":" Péter des yeules en sang."},
            {"deckId":1,"content":" Un moulin à vent rempli de cadavres."},
            {"deckId":1,"content":" L'abeille des Cheerios au miel et aux noix."},
            {"deckId":1,"content":" Porter ses bobettes à l'envers pour pas faire de lavage."},
            {"deckId":1,"content":" Godzilla."},
            {"deckId":1,"content":" Sniffer de la coke su' l'cul d'une pute."},
            {"deckId":1,"content":" Une glacière pleine d'organes."},
            {"deckId":1,"content":" Le rêve américain."},
            {"deckId":1,"content":" Ne pas porter de pantalons."},
            {"deckId":1,"content":" Un pet-sauce."},
            {"deckId":1,"content":" Passe-Carreau."},
            {"deckId":1,"content":" Des bébés morts."},
            {"deckId":1,"content":" Un prépuce."},
            {"deckId":1,"content":" Des solos de saxophone."},
            {"deckId":1,"content":" Les Français."},
            {"deckId":1,"content":" Un foetus."},
            {"deckId":1,"content":" Jouer de la ruine-babine en fourrant une grosse truie dans la boite d'un pickup."},
            {"deckId":1,"content":" Stephen Harper."},
            {"deckId":1,"content":" Des amputés."},
            {"deckId":1,"content":" L'eugénisme."},
            {"deckId":1,"content":" Mon statut marital."},
            {"deckId":1,"content":" Xavier Dolan."},
            {"deckId":1,"content":" Des abeilles?"},
            {"deckId":1,"content":" Des histoires érotiques d'Harry Potter."},
            {"deckId":1,"content":" Des Stormtroopers."},
            {"deckId":1,"content":" Se saouler au rince-bouche."},
            {"deckId":1,"content":" Des Nazis."},
            {"deckId":1,"content":" Assez d'héroïne pour tuer un éléphant."},
            {"deckId":1,"content":" Stephen Hawking qui chuchote des obscénités."},
            {"deckId":1,"content":" Des parents morts."},
            {"deckId":1,"content":" La psychologie du développement."},
            {"deckId":1,"content":" Un shocker."},
            {"deckId":1,"content":" Des questions d'examen racistes."},
            {"deckId":1,"content":" L'accent du lac Saint-Jean."},
            {"deckId":1,"content":" Des scies à chaine comme mains."},
            {"deckId":1,"content":" Nicolas Cage."},
            {"deckId":1,"content":" Des concours de beauté pour enfants."},
            {"deckId":1,"content":" Des explosions."},
            {"deckId":1,"content":" Sniffer de la colle."},
            {"deckId":1,"content":" Gonfler Jeff Fillion à l'hélium et le regarder flotter vers l'horizon."},
            {"deckId":1,"content":" La répression."},
            {"deckId":1,"content":" La drogue du viol."},
            {"deckId":1,"content":" Mon vagin."},
            {"deckId":1,"content":" Des pantalons de cowboy qui laissent les fesses à l'air."},
            {"deckId":1,"content":" Un meurtre crapuleux."},
            {"deckId":1,"content":" Donner son 110 %."},
            {"deckId":1,"content":" Sa Majesté la reine Elizabeth II."},
            {"deckId":1,"content":" La Déportation des Acadiens."},
            {"deckId":1,"content":" Être marginalisé."},
            {"deckId":1,"content":" Des gobelins."},
            {"deckId":1,"content":" L'espoir."},
            {"deckId":1,"content":" Le révérend Dr. Martin Luther King, Jr."},
            {"deckId":1,"content":" Un minuscule pénis."},
            {"deckId":1,"content":" Mon âme."},
            {"deckId":1,"content":" Une pitoune paquetée."},
            {"deckId":1,"content":" Les Vikings."},
            {"deckId":1,"content":" Des beaux pétards."},
            {"deckId":1,"content":" La séduction."},
            {"deckId":1,"content":" Un complexe d'Œdipe."},
            {"deckId":1,"content":" Des oies."},
            {"deckId":1,"content":" Des pantalons crissement serrés."},
            {"deckId":1,"content":" La musique New Age."},
            {"deckId":1,"content":" Des Pizza Pochettes."},
            {"deckId":1,"content":" Faire la moue."},
            {"deckId":1,"content":" Foncer dans l'tas."},
            {"deckId":1,"content":" Le droit de vote des femmes."},
            {"deckId":1,"content":" Un condom percé."},
            {"deckId":1,"content":" Don Cherry."},
            {"deckId":1,"content":" Les p'tits Ethiopiens."},
            {"deckId":1,"content":" La tuerie de Polytechnique."},
            {"deckId":1,"content":" Barack Obama."},
            {"deckId":1,"content":" Des Asiatiques poches en maths."},
            {"deckId":1,"content":" Des vieux Japonais."},
            {"deckId":1,"content":" L'orgasme féminin."},
            {"deckId":1,"content":" Un hold-up dans une banque de sperme."},
            {"deckId":1,"content":" Séparer les eaux de la Mer Rouge."},
            {"deckId":1,"content":" Arnold Schwarzenegger."},
            {"deckId":1,"content":" Une fellation au volant."},
            {"deckId":1,"content":" Des abdominaux spectaculaires."},
            {"deckId":1,"content":" Du gâteau aux fruits."},
            {"deckId":1,"content":" Un lion qui fait la baboune."},
            {"deckId":1,"content":" Un sac de fèves magiques."},
            {"deckId":1,"content":" Toujours prendre des décisions niaieuses."},
            {"deckId":1,"content":" Ma vie sexuelle."},
            {"deckId":1,"content":" Auschwitz."},
            {"deckId":1,"content":" Une tortue vicieuse qui te mord le gland."},
            {"deckId":1,"content":" Une explosion thermonucléaire."},
            {"deckId":1,"content":" Le clitoris."},
            {"deckId":1,"content":" Le Big Bang."},
            {"deckId":1,"content":" Des mines anti-personnelles."},
            {"deckId":1,"content":" Le Choeur de l'Armée Rouge."},
            {"deckId":1,"content":" Un tout petit cochon qui porte de toutes petites bottes de pluie."},
            {"deckId":1,"content":" Casse-Noisette."},
            {"deckId":1,"content":" Venir dans une flaque de larmes d'enfants."},
            {"deckId":1,"content":" Une belle grosse graine."},
            {"deckId":1,"content":" Un peu de temps juste pour moi."},
            {"deckId":1,"content":" La révolte des Métis."},
            {"deckId":1,"content":" Des jokes d'Holocauste au mauvais moment."},
            {"deckId":1,"content":" De la marde jusqu'au cou."},
            {"deckId":1,"content":" Fantasmer sur les bûcherons."},
            {"deckId":1,"content":" La voix d'Edgar Fruitier."},
            {"deckId":1,"content":" Les femmes dans les pubs de yogourt."},
            {"deckId":1,"content":" Un onguent chinois 100% naturel."},
            {"deckId":1,"content":" Être un sorcier, tabarnak!"},
            {"deckId":1,"content":" Un perçage génital."},
            {"deckId":1,"content":" Des travestis assez jolis merci."},
            {"deckId":1,"content":" Des batailles d'oreiller émoustillantes."},
            {"deckId":1,"content":" Des chnolles."},
            {"deckId":1,"content":" Grand-môman."},
            {"deckId":1,"content":" La friction."},
            {"deckId":1,"content":" Des morceaux de prostituée en décomposition."},
            {"deckId":1,"content":" Péter et s'en aller."},
            {"deckId":1,"content":" Écurer des enfants."},
            {"deckId":1,"content":" Un milliard de dollars."},
            {"deckId":1,"content":" Les boulettes de viande du lkea."},
            {"deckId":1,"content":" Mourir."},
            {"deckId":1,"content":" L'ouragan Katrina."},
            {"deckId":1,"content":" Les gais."},
            {"deckId":1,"content":" La folie de l'Homme."},
            {"deckId":1,"content":" Les hommes."},
            {"deckId":1,"content":" Les Amish."},
            {"deckId":1,"content":" Des oeufs de ptérodactyle."},
            {"deckId":1,"content":" Une bonne claque su'a yeule."},
            {"deckId":1,"content":" Une tumeur au cerveau."},
            {"deckId":1,"content":" Cards Against Humanity."},
            {"deckId":1,"content":" Une pelletée de slotche."},
            {"deckId":1,"content":" Michèle Richard."},
            {"deckId":1,"content":" Le laitier."},
            {"deckId":1,"content":" Une face à fesser d'dans."},
            {"deckId":1,"content":"* Kony."},
            {"deckId":1,"content":"* Des bobettes avec des motifs de Spider-Man."},
            {"deckId":1,"content":"* Ta mère."},
            {"deckId":1,"content":"* Mom Boucher."},
            {"deckId":1,"content":"* De la litière à chat."},
            {"deckId":1,"content":"* De l'alcool frelaté."},
            {"deckId":1,"content":"* Caler un bidon d'essence."},
            {"deckId":1,"content":"* De la sauce PFK."},
            {"deckId":1,"content":"* L'austérité."}
        ]
    }
]