{
    "port": 49152,
    "xOrigin":{
        "url":"*",
        "methods":"GET, POST, PUT, DELETE",
        "headers":"X-Requested-With, content-type, x-access-token",
        "credentials":false
    },
    "jwt":{
        "secret":"kek"
    }
}
